<?xml version="1.0" encoding="UTF-8" standalone="no"?>
<!-- Generator: Adobe Illustrator 24.0.1, SVG Export Plug-In . SVG Version: 6.00 Build 0)  -->

<svg
   xmlns:dc="http://purl.org/dc/elements/1.1/"
   xmlns:cc="http://creativecommons.org/ns#"
   xmlns:rdf="http://www.w3.org/1999/02/22-rdf-syntax-ns#"
   xmlns:svg="http://www.w3.org/2000/svg"
   xmlns="http://www.w3.org/2000/svg"
   xmlns:sodipodi="http://sodipodi.sourceforge.net/DTD/sodipodi-0.dtd"
   xmlns:inkscape="http://www.inkscape.org/namespaces/inkscape"
   version="1.1"
   id="Layer_1"
   x="0px"
   y="0px"
   viewBox="0 0 135.85907 132.32001"
   xml:space="preserve"
   sodipodi:docname="javakarta-ee.svg"
   width="135.85907"
   height="132.32001"
   inkscape:version="0.92.5 (2060ec1f9f, 2020-04-08)"><metadata
     id="metadata10"><rdf:RDF><cc:Work
         rdf:about=""><dc:format>image/svg+xml</dc:format><dc:type
           rdf:resource="http://purl.org/dc/dcmitype/StillImage" /><dc:title></dc:title></cc:Work></rdf:RDF></metadata><defs
     id="defs41" /><sodipodi:namedview
     pagecolor="#ffffff"
     bordercolor="#666666"
     borderopacity="1"
     objecttolerance="10"
     gridtolerance="10"
     guidetolerance="10"
     inkscape:pageopacity="0"
     inkscape:pageshadow="2"
     inkscape:window-width="1848"
     inkscape:window-height="1016"
     id="namedview39"
     showgrid="false"
     fit-margin-top="0"
     fit-margin-left="0"
     fit-margin-right="0"
     fit-margin-bottom="0"
     inkscape:zoom="4.1747584"
     inkscape:cx="67.499156"
     inkscape:cy="29.944209"
     inkscape:window-x="72"
     inkscape:window-y="27"
     inkscape:window-maximized="1"
     inkscape:current-layer="g824" /><style
     type="text/css"
     id="style2" /><path
     style="fill:#fdb940"
     inkscape:connector-curvature="0"
     id="path24"
     d="M 131.94,0 98.39,36.74 c -0.4,18.63 -4.93,46.68 -24.69,72.31 l 29.19,7.29 C 151.59,70.49 131.94,0 131.94,0 Z"
     class="st0" /><path
     style="fill:#feb322"
     inkscape:connector-curvature="0"
     id="path26"
     d="M 98.39,36.74 C 98.67,23.88 96.98,15.5 96.98,15.5 l -74.04,81.06 50.63,12.65 c 0.04,-0.05 0.08,-0.1 0.12,-0.16 l -33.67,-8.41 z"
     class="st1" /><path
     style="fill:#f98200"
     inkscape:connector-curvature="0"
     id="path28"
     d="m 40.03,100.64 33.67,8.41 C 93.46,83.42 97.99,55.37 98.39,36.74 Z"
     class="st2" /><path
     style="fill:#1b208b"
     inkscape:connector-curvature="0"
     id="path30"
     d="m 86.86,117.48 c 2.93,0 5.81,0.14 8.64,0.4 L 0,94.32 c 0,0 17.77,5.89 39.24,38 11.35,-9.07 28.47,-14.84 47.62,-14.84 z"
     class="st3" /><g
     transform="matrix(0.04308201,0,0,0.0464532,47.603708,15.5)"
     id="g824"><g
       id="g840"
       transform="scale(1,1.0650568)"
       style="fill:#5c3204;fill-opacity:1"><path
         d="m 1015.1,1168.8 c 118,135.8 -30.9,257.9 -30.9,257.9 0,0 299.4,-154.5 161.9,-348.1 -128.4,-180.5 -226.9,-270.1 306.2,-579.3 0,0 -836.9,209 -437.2,669.5 z"
         id="path4"
         inkscape:connector-curvature="0"
         style="fill:#5c3204;fill-opacity:1" /><path
         d="m 1146.1,0 c 0,0 254,254.1 -240.9,644.7 -396.9,313.5 -90.5,492.1 -0.1,696.4 C 673.4,1132.1 503.5,948.1 617.5,776.8 784.7,525.5 1248.5,403.6 1146.1,0 Z"
         id="path8"
         inkscape:connector-curvature="0"
         style="fill:#5c3204;fill-opacity:1" /></g><g
       id="g836"
       style="fill:#2a4151;fill-opacity:1"
       transform="matrix(1.0506804,0,0,0.91254349,-50.945022,260.78125)"><path
         d="m 580.6,1890.4 c 0,0 -93.4,54.3 66.5,72.7 193.7,22.1 292.7,18.9 506.1,-21.4 0,0 56.2,35.2 134.6,65.6 -478.5,205.1 -1083.1,-11.8 -707.2,-116.9 z m -58.5,-267.6 c 0,0 -104.7,77.5 55.3,94.1 207,21.4 370.3,23.1 653.2,-31.3 0,0 39,39.6 100.5,61.3 -578.6,169.2 -1222.9,13.3 -809,-124.1 z"
         id="path2"
         inkscape:connector-curvature="0"
         style="fill:#2a4151;fill-opacity:1" /><path
         d="m 1648,2088.4 c 0,0 69.1,57 -76.1,101 -276.2,83.6 -1149.7,108.9 -1392.3,3.3 -87.2,-38 76.4,-90.6 127.8,-101.7 53.6,-11.6 84.3,-9.5 84.3,-9.5 -97,-68.3 -626.9,134.1 -269.1,192.2 975.6,158.3 1778.5,-71.1 1525.4,-185.3 z M 625.5,1345.5 c 0,0 -444.3,105.6 -157.3,143.9 121.2,16.2 362.6,12.5 587.7,-6.4 183.9,-15.4 368.4,-48.4 368.4,-48.4 0,0 -64.8,27.8 -111.7,59.8 -451.2,118.7 -1322.8,63.4 -1071.8,-57.9 212.2,-102.6 384.7,-91 384.7,-91 z m 797,445.5 c 458.7,-238.3 246.6,-467.3 98.5,-436.4 -36.2,7.6 -52.4,14.1 -52.4,14.1 0,0 13.5,-21.1 39.2,-30.2 292.8,-102.9 518,303.6 -94.4,464.6 0,-0.1 7,-6.4 9.1,-12.1 z"
         id="path6"
         inkscape:connector-curvature="0"
         style="fill:#2a4151;fill-opacity:1" /><path
         d="m 670.6,2436.9 c 440.2,28.1 1116.3,-15.7 1132.3,-224 0,0 -30.8,79 -363.8,141.6 -375.7,70.7 -839.2,62.5 -1114,17.1 0,0 56.3,46.6 345.5,65.3 z"
         id="path10"
         inkscape:connector-curvature="0"
         style="fill:#2a4151;fill-opacity:1" /></g></g></svg>