<?xml version="1.0" encoding="UTF-8" standalone="no"?>
<!-- Generator: Adobe Illustrator 13.0.0, SVG Export Plug-In . SVG Version: 6.00 Build 14948)  -->

<svg
   xmlns:dc="http://purl.org/dc/elements/1.1/"
   xmlns:cc="http://creativecommons.org/ns#"
   xmlns:rdf="http://www.w3.org/1999/02/22-rdf-syntax-ns#"
   xmlns:svg="http://www.w3.org/2000/svg"
   xmlns="http://www.w3.org/2000/svg"
   xmlns:sodipodi="http://sodipodi.sourceforge.net/DTD/sodipodi-0.dtd"
   xmlns:inkscape="http://www.inkscape.org/namespaces/inkscape"
   version="1.1"
   id="Layer_1"
   x="0px"
   y="0px"
   width="290"
   height="290"
   viewBox="0 0 372.51175 372.51176"
   xml:space="preserve"
   sodipodi:docname="java11.svg"
   inkscape:version="0.92.5 (2060ec1f9f, 2020-04-08)"><metadata
     id="metadata33"><rdf:RDF><cc:Work
         rdf:about=""><dc:format>image/svg+xml</dc:format><dc:type
           rdf:resource="http://purl.org/dc/dcmitype/StillImage" /><dc:title></dc:title></cc:Work></rdf:RDF></metadata><defs
     id="defs31" /><sodipodi:namedview
     pagecolor="#ffffff"
     bordercolor="#666666"
     borderopacity="1"
     objecttolerance="10"
     gridtolerance="10"
     guidetolerance="10"
     inkscape:pageopacity="0"
     inkscape:pageshadow="2"
     inkscape:window-width="1848"
     inkscape:window-height="1016"
     id="namedview29"
     showgrid="false"
     fit-margin-top="0"
     fit-margin-left="0"
     fit-margin-right="0"
     fit-margin-bottom="0"
     inkscape:zoom="1.1023545"
     inkscape:cx="-5.0766112"
     inkscape:cy="-15.733289"
     inkscape:window-x="72"
     inkscape:window-y="27"
     inkscape:window-maximized="1"
     inkscape:current-layer="Layer_1" /><path
     style="fill:#5382a1;fill-opacity:0.70588235"
     d="m 131.79959,288.42344 c 0,0 -14.17801,8.245 10.09001,11.035 29.4,3.354 44.426,2.873 76.825,-3.259 0,0 8.518,5.341 20.414,9.967 -72.63,31.128 -164.376041,-1.803 -107.32901,-17.743"
     id="path4"
     inkscape:connector-curvature="0" /><path
     style="fill:#5382a1;fill-opacity:0.70588235"
     d="m 122.92458,247.80344 c 0,0 -15.90202,11.771 8.38401,14.283 31.40601,3.24 56.20801,3.505 99.12501,-4.759 0,0 5.936,6.018 15.27,9.309 -87.814,25.678 -185.623041,2.025 -122.77902,-18.833"
     id="path6"
     inkscape:connector-curvature="0" /><path
     style="fill:#5382a1;fill-opacity:0.70588235"
     d="m 293.8026,318.46844 c 0,0 10.492,8.645 -11.555,15.333 -41.923,12.7 -174.48803,16.535 -211.314041,0.506 -13.238,-5.759 11.587,-13.751 19.396,-15.428 8.144,-1.766 12.798001,-1.437 12.798001,-1.437 -14.722001,-10.371 -95.1570038,20.364 -40.857001,29.166 148.084041,24.015 269.943041,-10.814 231.532041,-28.14"
     id="path10"
     inkscape:connector-curvature="0" /><path
     style="fill:#5382a1;fill-opacity:0.70588235"
     d="m 138.61759,205.71644 c 0,0 -67.431031,16.016 -23.87902,21.832 18.38902,2.462 55.04703,1.905 89.19303,-0.956 27.906,-2.354 55.927,-7.359 55.927,-7.359 0,0 -9.84,4.214 -16.959,9.075 -68.475,18.009 -200.756044,9.631 -162.674041,-8.79 32.206011,-15.568 58.392031,-13.802 58.392031,-13.802"
     id="path12"
     inkscape:connector-curvature="0" /><path
     style="fill:#5382a1;fill-opacity:0.70588235"
     d="m 259.5806,273.33044 c 69.608,-36.171 37.424,-70.931 14.96,-66.248 -5.506,1.146 -7.961,2.139 -7.961,2.139 0,0 2.044,-3.202 5.948,-4.588 44.441,-15.624 78.619,46.081 -14.346,70.52 0,0.001 1.077,-0.962 1.399,-1.823"
     id="path14"
     inkscape:connector-curvature="0" /><path
     style="fill:#5382a1;fill-opacity:0.70588235"
     d="m 145.4576,371.34544 c 66.815,4.277 169.417,-2.373 171.847,-33.988 0,0 -4.671,11.985 -55.219,21.503 -57.028,10.732 -127.36401,9.479 -169.081041,2.601 0.001,-10e-4 8.540001,7.068 52.453041,9.884"
     id="path18"
     inkscape:connector-curvature="0" /><text
     xml:space="preserve"
     style="font-style:normal;font-variant:normal;font-weight:bold;font-stretch:normal;font-size:411.04745483px;line-height:125%;font-family:'Quattrocento Sans';-inkscape-font-specification:'Quattrocento Sans, Bold';font-variant-ligatures:normal;font-variant-caps:normal;font-variant-numeric:normal;font-feature-settings:normal;text-align:center;letter-spacing:0px;word-spacing:0px;writing-mode:lr-tb;text-anchor:middle;fill:#616161;fill-opacity:1;stroke:none;stroke-width:1.28452325px;stroke-linecap:butt;stroke-linejoin:miter;stroke-opacity:1"
     x="120.04185"
     y="341.96722"
     id="text845-6"><tspan
       sodipodi:role="line"
       id="tspan864"
       x="120.04185"
       y="341.96722">1</tspan></text>
<text
     xml:space="preserve"
     style="font-style:normal;font-variant:normal;font-weight:bold;font-stretch:normal;font-size:411.04745483px;line-height:125%;font-family:'Quattrocento Sans';-inkscape-font-specification:'Quattrocento Sans, Bold';font-variant-ligatures:normal;font-variant-caps:normal;font-variant-numeric:normal;font-feature-settings:normal;text-align:center;letter-spacing:0px;word-spacing:0px;writing-mode:lr-tb;text-anchor:middle;fill:#616161;fill-opacity:1;stroke:none;stroke-width:1.28452325px;stroke-linecap:butt;stroke-linejoin:miter;stroke-opacity:1"
     x="249.19286"
     y="341.96722"
     id="text845-6-5"><tspan
       style="stroke-width:1.28452325px"
       sodipodi:role="line"
       id="tspan864-2"
       x="249.19286"
       y="341.96722">1</tspan></text>
<path
     style="fill:#f8981d;fill-opacity:0.70588235"
     d="m 197.7436,178.89844 c 17.896,20.604 -4.702,39.145 -4.702,39.145 0,0 45.441,-23.458 24.572,-52.833 -19.491,-27.394 -34.438,-41.005 46.479,-87.933999 0,0 -127.01301,31.721999 -66.349,101.621999"
     id="path8"
     inkscape:connector-curvature="0" /><path
     style="fill:#f8981d;fill-opacity:0.70588235"
     d="m 217.6136,1.4984406 c 0,0 38.55,38.5630004 -36.563,97.8620004 -60.23302,47.567999 -13.735,74.689999 -0.025,105.677999 -35.159,-31.722 -60.96102,-59.647 -43.65101,-85.637 C 162.7816,81.250441 233.1676,62.753441 217.6136,1.4984406"
     id="path16"
     inkscape:connector-curvature="0" /></svg>